C:\Users\Tammam\Desktop\java\fall2022lab04\unittestingdebugging\src\main\java\debugging\assignment\Employee.java
C:\Users\Tammam\Desktop\java\fall2022lab04\unittestingdebugging\src\main\java\debugging\assignment\App.java
C:\Users\Tammam\Desktop\java\fall2022lab04\unittestingdebugging\src\main\java\debugging\assignment\Company.java
